…
In addition, the `anti_join` for `bakers` and `bakes` has rows from
season 9 and 10, as the `bakes` dataset is missing data from those
seasons. It stops at season 8.

``` r
anti_join(bakers, bakes)
```

    ## Joining with `by = join_by(series, baker)`

    ## # A tibble: 26 × 6
    ##    series baker   last_name       baker_age baker_occupation            hometown
    ##     <dbl> <chr>   <chr>               <dbl> <chr>                       <chr>   
    ##  1      2 Jo      Wheatley               41 Housewife                   Ongar, …
    ##  2      9 Antony  Amourdoux              30 Banker                      London  
    ##  3      9 Briony  Williams               33 Full-time parent            Bristol 
    ##  4      9 Dan     Beasley-Harling        36 Full-time parent            London  
    ##  5      9 Imelda  McCarron               33 Countryside recreation off… County …
    ##  6      9 Jon     Jenkins                47 Blood courier               Newport 
    ##  7      9 Karen   Wright                 60 In-store sampling assistant Wakefie…
    ##  8      9 Kim-Joy Hewlett                27 Mental health specialist    Leeds   
    ##  9      9 Luke    Thompson               30 Civil servant/house and te… Sheffie…
    ## 10      9 Manon   Lagrave                26 Software project manager    London  
    ## # ℹ 16 more rows
…
